<?xml version="1.0" encoding="utf-8"?>
<!-- Generator: Adobe Illustrator 17.1.0, SVG Export Plug-In . SVG Version: 6.00 Build 0)  -->
<!DOCTYPE svg PUBLIC "-//W3C//DTD SVG 1.1//EN" "http://www.w3.org/Graphics/SVG/1.1/DTD/svg11.dtd">
<svg version="1.1" id="Layer_2" xmlns="http://www.w3.org/2000/svg" xmlns:xlink="http://www.w3.org/1999/xlink" x="0px" y="0px"
	 viewBox="86 93 28 14" enable-background="new 86 93 28 14" xml:space="preserve">
<path fill="#757575" d="M95.1,98.2c0.1-0.4,0.1-0.6,0.2-1.1c-0.2-0.4-0.7-1.8-2.7-1.8c-2,0-4.7,2.3-4.7,5.1c0,1.6,0.9,3.3,3,3.3
	c1.1,0,1.9-0.6,1.9-0.6l-0.5,3.9h0.8l1.2-5.8c0,0-1.2,1.7-2.9,1.7c-1.1,0-2.4-0.7-2.4-2.5c0-2.2,2-3.8,3.7-3.8
	C94.3,96.5,94.9,97.7,95.1,98.2z"/>
<path fill="#757575" d="M110.7,97h-1.1l0.2-0.9l1.2-0.1l0.6-2.1h1l-0.4,2.1h1.9l-0.2,1h-2l-0.9,4.3c0,0.2,0,0.4,0,0.6
	c0,0.6,0.3,0.9,1,0.9c0.3,0,0.6-0.1,0.8-0.2l0.3,0.9c-0.3,0.2-0.8,0.3-1.4,0.3c-1.3,0-1.8-0.8-1.8-1.7c0-0.3,0-0.6,0.1-0.8L110.7,97
	z"/>
<path fill="#757575" d="M103.7,101.8c0.5,0.7,1.2,1.1,2,1.1c0.9,0,1.6-0.6,1.6-1.3c0-0.5-0.3-0.9-1.4-1.4c-1.2-0.6-1.7-1.2-1.7-2.1
	c0-1.3,1.2-2.3,2.6-2.3c0.9,0,1.7,0.4,2.2,1l-0.7,0.7c-0.4-0.4-0.9-0.8-1.6-0.8c-0.8,0-1.4,0.5-1.4,1.2s0.7,1,1.3,1.3
	c1.4,0.8,1.8,1.3,1.8,2.2c0,1.4-1.2,2.3-2.8,2.3c-1,0-2.1-0.6-2.6-1.4L103.7,101.8z"/>
<path fill="#757575" d="M100,95.8c0.8,0,1.5,0.5,1.8,1.1h0.1l0.3-1h1l-1.5,7.6h-1l0.1-1.1h-0.1c-0.7,0.8-1.7,1.3-2.6,1.3
	c-1.3,0-2.2-1-2.2-2.8C95.9,98.1,97.9,95.8,100,95.8z M100.9,101.4l0.7-3.4c-0.4-0.8-1-1.1-1.5-1.1c-1.5,0-2.9,1.9-2.9,4
	c0,1.3,0.5,1.9,1.4,1.9C99.3,102.8,100.2,102.4,100.9,101.4z"/>
<path fill="#CCCCCC" d="M92,104.6l-0.1,0.5c0,0-0.7,0.3-1.6,0.3c-2.9,0-4.3-2.3-4.3-4.8c0-4.4,4-7.6,6.8-7.6c1.8,0,2.6,0.8,3.1,1.2
	l-0.2,1.1c0,0-1-1.4-2.9-1.4c-3.6,0-6,4.2-6,6.7c0,1.8,1.1,4.3,3.7,4.3C91.3,104.8,92,104.6,92,104.6z"/>
</svg>
