<?xml version="1.0" encoding="utf-8"?>
<!-- Generator: Adobe Illustrator 17.1.0, SVG Export Plug-In . SVG Version: 6.00 Build 0)  -->
<!DOCTYPE svg PUBLIC "-//W3C//DTD SVG 1.1//EN" "http://www.w3.org/Graphics/SVG/1.1/DTD/svg11.dtd">
<svg version="1.1" id="Layer_1" xmlns="http://www.w3.org/2000/svg" xmlns:xlink="http://www.w3.org/1999/xlink" x="0px" y="0px"
	 viewBox="4 4 16 16" enable-background="new 4 4 16 16" xml:space="preserve">
<path fill="#6154B5" d="M12,7V4.3L8.7,7.7L12,11V8.3c2.2,0,4,1.8,4,4s-1.8,4-4,4s-4-1.8-4-4H6.7c0,2.9,2.4,5.3,5.3,5.3
	s5.3-2.4,5.3-5.3S14.9,7,12,7z"/>
</svg>
